T1CP4
…
summary(gastos_por_mes_pb_maio$gasto)

##    Min. 1st Qu.  Median    Mean 3rd Qu.    Max. 
##    9444   23510   32900   34780   42380   68300

Verificando outlier no ms de maio na PB(BENJAMIN MARANHO 68.29685)

Esse gasto de Benjamin foi escolhido pelo fato de ter ultrapassado o dobro do valor da mediana. Dentre seus gastos, o mais significativo foi na categoria DIVULGAO DA ATIVIDADE PARLAMENTAR com a empresa GRFICA E EDITORA MANGUEIRA LTDA, na confeco de 59000(bastante ein!?) unidades de informativo. Segue link da nota: http://www.camara.gov.br/cota-parlamentar/documentos/publ/1545/2016/5984213.pdf

benjamin_maio = dados %>%
  filter(numMes == 5, nuCarteiraParlamentar == 131) #Nmero da carteira de BENJAMIN MARANHO
select(benjamin_maio[order(benjamin_maio$vlrLiquido, decreasing = T),], txtDescricao, vlrLiquido)

## # A tibble: 37 x 2
##                                                 txtDescricao vlrLiquido
##                                                        <chr>      <dbl>
## 1                       DIVULGAO DA ATIVIDADE PARLAMENTAR.   41890.00
## 2                       DIVULGAO DA ATIVIDADE PARLAMENTAR.    5000.00
## 3                              COMBUSTVEIS E LUBRIFICANTES.    4630.01
## 4              LOCAO OU FRETAMENTO DE VECULOS AUTOMOTORES    3800.00
## 5                       DIVULGAO DA ATIVIDADE PARLAMENTAR.    3500.00
## 6  MANUTENO DE ESCRITRIO DE APOIO  ATIVIDADE PARLAMENTAR    3000.00
## 7  MANUTENO DE ESCRITRIO DE APOIO  ATIVIDADE PARLAMENTAR    1250.00
## 8                       DIVULGAO DA ATIVIDADE PARLAMENTAR.     550.00
## 9                                      Emisso Bilhete Areo     544.00
## 10                                                 TELEFONIA     505.90
## # ... with 27 more rows
…
